verilog/cla5/cla5.vcd
$date
	Wed Dec  3 17:25:29 2025
$end
$version
	Icarus Verilog
$end
$timescale
	1ps
$end
$scope module tb_cla5 $end
$var wire 5 ! S [4:0] $end
$var wire 1 " Cout $end
$var reg 5 # A [4:0] $end
$var reg 5 $ B [4:0] $end
$var reg 1 % Cin $end
$var reg 6 & expected [5:0] $end
$var integer 32 ' a [31:0] $end
$var integer 32 ( b [31:0] $end
$var integer 32 ) c [31:0] $end
$var integer 32 * errors [31:0] $end
$scope module uut $end
$var wire 5 + A [4:0] $end
$var wire 5 , B [4:0] $end
$var wire 1 % Cin $end
$var wire 1 " Cout $end
$var wire 1 - c0 $end
$var wire 1 . t_p4p3p2p1p0_c0 $end
$var wire 1 / t_p4p3p2p1_g0 $end
$var wire 1 0 t_p4p3p2_g1 $end
$var wire 1 1 t_p4p3_g2 $end
$var wire 1 2 t_p4_g3 $end
$var wire 1 3 t_p3p2p1p0_c0 $end
$var wire 1 4 t_p3p2p1_g0 $end
$var wire 1 5 t_p3p2_g1 $end
$var wire 1 6 t_p3_g2 $end
$var wire 1 7 t_p2p1p0_c0 $end
$var wire 1 8 t_p2p1_g0 $end
$var wire 1 9 t_p2_g1 $end
$var wire 1 : t_p1p0_c0 $end
$var wire 1 ; t_p1_g0 $end
$var wire 1 < t_p0_c0 $end
$var wire 1 = c5 $end
$var wire 1 > c4 $end
$var wire 1 ? c3 $end
$var wire 1 @ c2 $end
$var wire 1 A c1 $end
$var wire 5 B S [4:0] $end
$var wire 1 C P4 $end
$var wire 1 D P3 $end
$var wire 1 E P2 $end
$var wire 1 F P1 $end
$var wire 1 G P0 $end
$var wire 1 H G4 $end
$var wire 1 I G3 $end
$var wire 1 J G2 $end
$var wire 1 K G1 $end
$var wire 1 L G0 $end
$scope module a_p0_c0 $end
$var wire 1 - B $end
$var wire 1 < Y $end
$var wire 1 G A $end
$upscope $end
$scope module a_p1_g0 $end
$var wire 1 ; Y $end
$var wire 1 L B $end
$var wire 1 F A $end
$upscope $end
$scope module a_p1p0_c0 $end
$var wire 1 - C $end
$var wire 1 : Y $end
$var wire 1 G B $end
$var wire 1 F A $end
$upscope $end
$scope module a_p2_g1 $end
$var wire 1 9 Y $end
$var wire 1 K B $end
$var wire 1 E A $end
$upscope $end
$scope module a_p2p1_g0 $end
$var wire 1 8 Y $end
$var wire 1 L C $end
$var wire 1 F B $end
$var wire 1 E A $end
$upscope $end
$scope module a_p2p1p0_c0 $end
$var wire 1 - D $end
$var wire 1 7 Y $end
$var wire 1 G C $end
$var wire 1 F B $end
$var wire 1 E A $end
$upscope $end
$scope module a_p3_g2 $end
$var wire 1 6 Y $end
$var wire 1 J B $end
$var wire 1 D A $end
$upscope $end
$scope module a_p3p2_g1 $end
$var wire 1 5 Y $end
$var wire 1 K C $end
$var wire 1 E B $end
$var wire 1 D A $end
$upscope $end
$scope module a_p3p2p1_g0 $end
$var wire 1 4 Y $end
$var wire 1 L D $end
$var wire 1 F C $end
$var wire 1 E B $end
$var wire 1 D A $end
$upscope $end
$scope module a_p3p2p1p0_c0 $end
$var wire 1 - E $end
$var wire 1 3 Y $end
$var wire 1 G D $end
$var wire 1 F C $end
$var wire 1 E B $end
$var wire 1 D A $end
$upscope $end
$scope module a_p4_g3 $end
$var wire 1 2 Y $end
$var wire 1 I B $end
$var wire 1 C A $end
$upscope $end
$scope module a_p4p3_g2 $end
$var wire 1 1 Y $end
$var wire 1 J C $end
$var wire 1 D B $end
$var wire 1 C A $end
$upscope $end
$scope module a_p4p3p2_g1 $end
$var wire 1 0 Y $end
$var wire 1 K D $end
$var wire 1 E C $end
$var wire 1 D B $end
$var wire 1 C A $end
$upscope $end
$scope module a_p4p3p2p1_g0 $end
$var wire 1 / Y $end
$var wire 1 L E $end
$var wire 1 F D $end
$var wire 1 E C $end
$var wire 1 D B $end
$var wire 1 C A $end
$upscope $end
$scope module a_p4p3p2p1p0_c0 $end
$var wire 1 - F $end
$var wire 1 . Y $end
$var wire 1 G E $end
$var wire 1 F D $end
$var wire 1 E C $end
$var wire 1 D B $end
$var wire 1 C A $end
$upscope $end
$scope module gp0 $end
$var wire 1 M A $end
$var wire 1 N B $end
$var wire 1 G P $end
$var wire 1 L G $end
$scope module u_and $end
$var wire 1 M A $end
$var wire 1 N B $end
$var wire 1 L Y $end
$upscope $end
$scope module u_xor $end
$var wire 1 M A $end
$var wire 1 N B $end
$var wire 1 O n3 $end
$var wire 1 P n2 $end
$var wire 1 Q n1 $end
$var wire 1 G Y $end
$scope module u1 $end
$var wire 1 M A $end
$var wire 1 N B $end
$var wire 1 Q Y $end
$upscope $end
$scope module u2 $end
$var wire 1 M A $end
$var wire 1 Q B $end
$var wire 1 P Y $end
$upscope $end
$scope module u3 $end
$var wire 1 N A $end
$var wire 1 Q B $end
$var wire 1 O Y $end
$upscope $end
$scope module u4 $end
$var wire 1 P A $end
$var wire 1 O B $end
$var wire 1 G Y $end
$upscope $end
$upscope $end
$upscope $end
$scope module gp1 $end
$var wire 1 R A $end
$var wire 1 S B $end
$var wire 1 F P $end
$var wire 1 K G $end
$scope module u_and $end
$var wire 1 R A $end
$var wire 1 S B $end
$var wire 1 K Y $end
$upscope $end
$scope module u_xor $end
$var wire 1 R A $end
$var wire 1 S B $end
$var wire 1 T n3 $end
$var wire 1 U n2 $end
$var wire 1 V n1 $end
$var wire 1 F Y $end
$scope module u1 $end
$var wire 1 R A $end
$var wire 1 S B $end
$var wire 1 V Y $end
$upscope $end
$scope module u2 $end
$var wire 1 R A $end
$var wire 1 V B $end
$var wire 1 U Y $end
$upscope $end
$scope module u3 $end
$var wire 1 S A $end
$var wire 1 V B $end
$var wire 1 T Y $end
$upscope $end
$scope module u4 $end
$var wire 1 U A $end
$var wire 1 T B $end
$var wire 1 F Y $end
$upscope $end
$upscope $end
$upscope $end
$scope module gp2 $end
$var wire 1 W A $end
$var wire 1 X B $end
$var wire 1 E P $end
$var wire 1 J G $end
$scope module u_and $end
$var wire 1 W A $end
$var wire 1 X B $end
$var wire 1 J Y $end
$upscope $end
$scope module u_xor $end
$var wire 1 W A $end
$var wire 1 X B $end
$var wire 1 Y n3 $end
$var wire 1 Z n2 $end
$var wire 1 [ n1 $end
$var wire 1 E Y $end
$scope module u1 $end
$var wire 1 W A $end
$var wire 1 X B $end
$var wire 1 [ Y $end
$upscope $end
$scope module u2 $end
$var wire 1 W A $end
$var wire 1 [ B $end
$var wire 1 Z Y $end
$upscope $end
$scope module u3 $end
$var wire 1 X A $end
$var wire 1 [ B $end
$var wire 1 Y Y $end
$upscope $end
$scope module u4 $end
$var wire 1 Z A $end
$var wire 1 Y B $end
$var wire 1 E Y $end
$upscope $end
$upscope $end
$upscope $end
$scope module gp3 $end
$var wire 1 \ A $end
$var wire 1 ] B $end
$var wire 1 D P $end
$var wire 1 I G $end
$scope module u_and $end
$var wire 1 \ A $end
$var wire 1 ] B $end
$var wire 1 I Y $end
$upscope $end
$scope module u_xor $end
$var wire 1 \ A $end
$var wire 1 ] B $end
$var wire 1 ^ n3 $end
$var wire 1 _ n2 $end
$var wire 1 ` n1 $end
$var wire 1 D Y $end
$scope module u1 $end
$var wire 1 \ A $end
$var wire 1 ] B $end
$var wire 1 ` Y $end
$upscope $end
$scope module u2 $end
$var wire 1 \ A $end
$var wire 1 ` B $end
$var wire 1 _ Y $end
$upscope $end
$scope module u3 $end
$var wire 1 ] A $end
$var wire 1 ` B $end
$var wire 1 ^ Y $end
$upscope $end
$scope module u4 $end
$var wire 1 _ A $end
$var wire 1 ^ B $end
$var wire 1 D Y $end
$upscope $end
$upscope $end
$upscope $end
$scope module gp4 $end
$var wire 1 a A $end
$var wire 1 b B $end
$var wire 1 C P $end
$var wire 1 H G $end
$scope module u_and $end
$var wire 1 a A $end
$var wire 1 b B $end
$var wire 1 H Y $end
$upscope $end
$scope module u_xor $end
$var wire 1 a A $end
$var wire 1 b B $end
$var wire 1 c n3 $end
$var wire 1 d n2 $end
$var wire 1 e n1 $end
$var wire 1 C Y $end
$scope module u1 $end
$var wire 1 a A $end
$var wire 1 b B $end
$var wire 1 e Y $end
$upscope $end
$scope module u2 $end
$var wire 1 a A $end
$var wire 1 e B $end
$var wire 1 d Y $end
$upscope $end
$scope module u3 $end
$var wire 1 b A $end
$var wire 1 e B $end
$var wire 1 c Y $end
$upscope $end
$scope module u4 $end
$var wire 1 d A $end
$var wire 1 c B $end
$var wire 1 C Y $end
$upscope $end
$upscope $end
$upscope $end
$scope module o_c1 $end
$var wire 1 L A $end
$var wire 1 < B $end
$var wire 1 A Y $end
$upscope $end
$scope module o_c2 $end
$var wire 1 K A $end
$var wire 1 ; B $end
$var wire 1 : C $end
$var wire 1 @ Y $end
$upscope $end
$scope module o_c3 $end
$var wire 1 J A $end
$var wire 1 9 B $end
$var wire 1 8 C $end
$var wire 1 7 D $end
$var wire 1 ? Y $end
$upscope $end
$scope module o_c4 $end
$var wire 1 I A $end
$var wire 1 6 B $end
$var wire 1 5 C $end
$var wire 1 4 D $end
$var wire 1 3 E $end
$var wire 1 > Y $end
$upscope $end
$scope module o_c5 $end
$var wire 1 H A $end
$var wire 1 2 B $end
$var wire 1 1 C $end
$var wire 1 0 D $end
$var wire 1 / E $end
$var wire 1 . F $end
$var wire 1 = Y $end
$upscope $end
$scope module x_s0 $end
$var wire 1 G A $end
$var wire 1 - B $end
$var wire 1 f n3 $end
$var wire 1 g n2 $end
$var wire 1 h n1 $end
$var wire 1 i Y $end
$scope module u1 $end
$var wire 1 G A $end
$var wire 1 - B $end
$var wire 1 h Y $end
$upscope $end
$scope module u2 $end
$var wire 1 G A $end
$var wire 1 h B $end
$var wire 1 g Y $end
$upscope $end
$scope module u3 $end
$var wire 1 - A $end
$var wire 1 h B $end
$var wire 1 f Y $end
$upscope $end
$scope module u4 $end
$var wire 1 g A $end
$var wire 1 f B $end
$var wire 1 i Y $end
$upscope $end
$upscope $end
$scope module x_s1 $end
$var wire 1 F A $end
$var wire 1 A B $end
$var wire 1 j n3 $end
$var wire 1 k n2 $end
$var wire 1 l n1 $end
$var wire 1 m Y $end
$scope module u1 $end
$var wire 1 F A $end
$var wire 1 A B $end
$var wire 1 l Y $end
$upscope $end
$scope module u2 $end
$var wire 1 F A $end
$var wire 1 l B $end
$var wire 1 k Y $end
$upscope $end
$scope module u3 $end
$var wire 1 A A $end
$var wire 1 l B $end
$var wire 1 j Y $end
$upscope $end
$scope module u4 $end
$var wire 1 k A $end
$var wire 1 j B $end
$var wire 1 m Y $end
$upscope $end
$upscope $end
$scope module x_s2 $end
$var wire 1 E A $end
$var wire 1 @ B $end
$var wire 1 n n3 $end
$var wire 1 o n2 $end
$var wire 1 p n1 $end
$var wire 1 q Y $end
$scope module u1 $end
$var wire 1 E A $end
$var wire 1 @ B $end
$var wire 1 p Y $end
$upscope $end
$scope module u2 $end
$var wire 1 E A $end
$var wire 1 p B $end
$var wire 1 o Y $end
$upscope $end
$scope module u3 $end
$var wire 1 @ A $end
$var wire 1 p B $end
$var wire 1 n Y $end
$upscope $end
$scope module u4 $end
$var wire 1 o A $end
$var wire 1 n B $end
$var wire 1 q Y $end
$upscope $end
$upscope $end
$scope module x_s3 $end
$var wire 1 D A $end
$var wire 1 ? B $end
$var wire 1 r n3 $end
$var wire 1 s n2 $end
$var wire 1 t n1 $end
$var wire 1 u Y $end
$scope module u1 $end
$var wire 1 D A $end
$var wire 1 ? B $end
$var wire 1 t Y $end
$upscope $end
$scope module u2 $end
$var wire 1 D A $end
$var wire 1 t B $end
$var wire 1 s Y $end
$upscope $end
$scope module u3 $end
$var wire 1 ? A $end
$var wire 1 t B $end
$var wire 1 r Y $end
$upscope $end
$scope module u4 $end
$var wire 1 s A $end
$var wire 1 r B $end
$var wire 1 u Y $end
$upscope $end
$upscope $end
$scope module x_s4 $end
$var wire 1 C A $end
$var wire 1 > B $end
$var wire 1 v n3 $end
$var wire 1 w n2 $end
$var wire 1 x n1 $end
$var wire 1 y Y $end
$scope module u1 $end
$var wire 1 C A $end
$var wire 1 > B $end
$var wire 1 x Y $end
$upscope $end
$scope module u2 $end
$var wire 1 C A $end
$var wire 1 x B $end
$var wire 1 w Y $end
$upscope $end
$scope module u3 $end
$var wire 1 > A $end
$var wire 1 x B $end
$var wire 1 v Y $end
$upscope $end
$scope module u4 $end
$var wire 1 w A $end
$var wire 1 v B $end
$var wire 1 y Y $end
$upscope $end
$upscope $end
$upscope $end
$upscope $end
$enddefinitions $end
$comment Show the parameter values. $end
$dumpall
$end
#0
$dumpvars
0y
1x
1w
1v
0u
1t
1s
1r
0q
1p
1o
1n
0m
1l
1k
1j
0i
1h
1g
1f
1e
1d
1c
0b
0a
1`
1_
1^
0]
0\
1[
1Z
1Y
0X
0W
1V
1U
1T
0S
0R
1Q
1P
1O
0N
0M
0L
0K
0J
0I
0H
0G
0F
0E
0D
0C
b0 B
0A
0@
0?
0>
0=
0<
0;
0:
09
08
07
06
05
04
03
02
01
00
0/
0.
0-
b0 ,
b0 +
b0 *
b0 )
b0 (
b0 '
bx &
0%
b0 $
b0 #
0"
b0 !
$end
#5000
b1 !
b1 B
1i
0f
1-
1%
b1 )
b0 &
#10000
0g
1G
b1 !
b1 B
1i
0O
1f
1N
0-
0%
b1 $
b1 ,
b1 (
b0 )
b1 &
#15000
1m
b10 !
b10 B
0i
0j
1g
1A
0h
1f
1<
1-
1%
b1 )
#20000
0k
1m
b10 !
b10 B
0i
0G
1F
1j
1g
1O
0T
0A
1h
0<
0N
1S
0-
0%
b10 $
b10 ,
b10 (
b0 )
b10 &
#25000
b11 !
b11 B
1i
0f
1-
1%
b1 )
#30000
0g
1G
b11 !
b11 B
1i
0O
1f
1N
0-
0%
b11 $
b11 ,
b11 (
b0 )
b11 &
#35000
0m
1k
1q
b100 !
b100 B
0i
0l
1j
0n
1g
1A
1@
0h
1f
1<
1:
1-
1%
b1 )
#40000
0o
1q
b100 !
b100 B
0i
0G
0F
1E
1l
1n
1g
1O
1T
0Y
0A
0@
1h
0<
0:
0N
0S
1X
0-
0%
b100 $
b100 ,
b100 (
b0 )
b100 &
#45000
b101 !
b101 B
1i
0f
1-
1%
b1 )
#50000
0g
1G
b101 !
b101 B
1i
0O
1f
1N
0-
0%
b101 $
b101 ,
b101 (
b0 )
b101 &
#55000
1m
b110 !
b110 B
0i
0j
1g
1A
0h
1f
1<
1-
1%
b1 )
#60000
0k
1m
b110 !
b110 B
0i
0G
1F
1j
1g
1O
0T
0A
1h
0<
0N
1S
0-
0%
b110 $
b110 ,
b110 (
b0 )
b110 &
#65000
b111 !
b111 B
1i
0f
1-
1%
b1 )
#70000
0g
1G
b111 !
b111 B
1i
0O
1f
1N
0-
0%
b111 $
b111 ,
b111 (
b0 )
b111 &
#75000
0m
0q
1k
1o
1u
b1000 !
b1000 B
0i
0l
1j
0p
1n
0r
1g
1A
1@
1?
0h
1f
1<
1:
17
1-
1%
b1 )
#80000
0s
1u
b1000 !
b1000 B
0i
0G
0F
0E
1D
1l
1p
1r
1g
1O
1T
1Y
0^
0A
0@
0?
1h
0<
0:
07
0N
0S
0X
1]
0-
0%
b1000 $
b1000 ,
b1000 (
b0 )
b1000 &
#85000
b1001 !
b1001 B
1i
0f
1-
1%
b1 )
#90000
0g
1G
b1001 !
b1001 B
1i
0O
1f
1N
0-
0%
b1001 $
b1001 ,
b1001 (
b0 )
b1001 &
#95000
1m
b1010 !
b1010 B
0i
0j
1g
1A
0h
1f
1<
1-
1%
b1 )
#100000
0k
1m
b1010 !
b1010 B
0i
0G
1F
1j
1g
1O
0T
0A
1h
0<
0N
1S
0-
0%
b1010 $
b1010 ,
b1010 (
b0 )
b1010 &
#105000
b1011 !
b1011 B
1i
0f
1-
1%
b1 )
#110000
0g
1G
b1011 !
b1011 B
1i
0O
1f
1N
0-
0%
b1011 $
b1011 ,
b1011 (
b0 )
b1011 &
#115000
0m
1k
1q
b1100 !
b1100 B
0i
0l
1j
0n
1g
1A
1@
0h
1f
1<
1:
1-
1%
b1 )
#120000
0o
1q
b1100 !
b1100 B
0i
0G
0F
1E
1l
1n
1g
1O
1T
0Y
0A
0@
1h
0<
0:
0N
0S
1X
0-
0%
b1100 $
b1100 ,
b1100 (
b0 )
b1100 &
#125000
b1101 !
b1101 B
1i
0f
1-
1%
b1 )
#130000
0g
1G
b1101 !
b1101 B
1i
0O
1f
1N
0-
0%
b1101 $
b1101 ,
b1101 (
b0 )
b1101 &
#135000
1m
b1110 !
b1110 B
0i
0j
1g
1A
0h
1f
1<
1-
1%
b1 )
#140000
0k
1m
b1110 !
b1110 B
0i
0G
1F
1j
1g
1O
0T
0A
1h
0<
0N
1S
0-
0%
b1110 $
b1110 ,
b1110 (
b0 )
b1110 &
#145000
b1111 !
b1111 B
1i
0f
1-
1%
b1 )
#150000
0g
1G
b1111 !
b1111 B
1i
0O
1f
1N
0-
0%
b1111 $
b1111 ,
b1111 (
b0 )
b1111 &
#155000
0m
0q
0u
1k
1o
1s
1y
b10000 !
b10000 B
0i
0l
1j
0p
1n
0t
1r
0v
1g
1A
1@
1?
1>
0h
1f
1<
1:
17
13
1-
1%
b1 )
#160000
0w
1y
b10000 !
b10000 B
0i
0G
0F
0E
0D
1C
1l
1p
1t
1v
1g
1O
1T
1Y
1^
0c
0A
0@
0?
0>
1h
0<
0:
07
03
0N
0S
0X
0]
1b
0-
0%
b10000 $
b10000 ,
b10000 (
b0 )
b10000 &
#165000
b10001 !
b10001 B
1i
0f
1-
1%
b1 )
#170000
0g
1G
b10001 !
b10001 B
1i
0O
1f
1N
0-
0%
b10001 $
b10001 ,
b10001 (
b0 )
b10001 &
#175000
1m
b10010 !
b10010 B
0i
0j
1g
1A
0h
1f
1<
1-
1%
b1 )
#180000
0k
1m
b10010 !
b10010 B
0i
0G
1F
1j
1g
1O
0T
0A
1h
0<
0N
1S
0-
0%
b10010 $
b10010 ,
b10010 (
b0 )
b10010 &
#185000
b10011 !
b10011 B
1i
0f
1-
1%
b1 )
#190000
0g
1G
b10011 !
b10011 B
1i
0O
1f
1N
0-
0%
b10011 $
b10011 ,
b10011 (
b0 )
b10011 &
#195000
0m
1k
1q
b10100 !
b10100 B
0i
0l
1j
0n
1g
1A
1@
0h
1f
1<
1:
1-
1%
b1 )
#200000
0o
1q
b10100 !
b10100 B
0i
0G
0F
1E
1l
1n
1g
1O
1T
0Y
0A
0@
1h
0<
0:
0N
0S
1X
0-
0%
b10100 $
b10100 ,
b10100 (
b0 )
b10100 &
#205000
b10101 !
b10101 B
1i
0f
1-
1%
b1 )
#210000
0g
1G
b10101 !
b10101 B
1i
0O
1f
1N
0-
0%
b10101 $
b10101 ,
b10101 (
b0 )
b10101 &
#215000
1m
b10110 !
b10110 B
0i
0j
1g
1A
0h
1f
1<
1-
1%
b1 )
#220000
0k
1m
b10110 !
b10110 B
0i
0G
1F
1j
1g
1O
0T
0A
1h
0<
0N
1S
0-
0%
b10110 $
b10110 ,
b10110 (
b0 )
b10110 &
#225000
b10111 !
b10111 B
1i
0f
1-
1%
b1 )
#230000
0g
1G
b10111 !
b10111 B
1i
0O
1f
1N
0-
0%
b10111 $
b10111 ,
b10111 (
b0 )
b10111 &
#235000
0m
0q
1k
1o
1u
b11000 !
b11000 B
0i
0l
1j
0p
1n
0r
1g
1A
1@
1?
0h
1f
1<
1:
17
1-
1%
b1 )
#240000
0s
1u
b11000 !
b11000 B
0i
0G
0F
0E
1D
1l
1p
1r
1g
1O
1T
1Y
0^
0A
0@
0?
1h
0<
0:
07
0N
0S
0X
1]
0-
0%
b11000 $
b11000 ,
b11000 (
b0 )
b11000 &
#245000
b11001 !
b11001 B
1i
0f
1-
1%
b1 )
#250000
0g
1G
b11001 !
b11001 B
1i
0O
1f
1N
0-
0%
b11001 $
b11001 ,
b11001 (
b0 )
b11001 &
#255000
1m
b11010 !
b11010 B
0i
0j
1g
1A
0h
1f
1<
1-
1%
b1 )
#260000
0k
1m
b11010 !
b11010 B
0i
0G
1F
1j
1g
1O
0T
0A
1h
0<
0N
1S
0-
0%
b11010 $
b11010 ,
b11010 (
b0 )
b11010 &
#265000
b11011 !
b11011 B
1i
0f
1-
1%
b1 )
#270000
0g
1G
b11011 !
b11011 B
1i
0O
1f
1N
0-
0%
b11011 $
b11011 ,
b11011 (
b0 )
b11011 &
#275000
0m
1k
1q
b11100 !
b11100 B
0i
0l
1j
0n
1g
1A
1@
0h
1f
1<
1:
1-
1%
b1 )
#280000
0o
1q
b11100 !
b11100 B
0i
0G
0F
1E
1l
1n
1g
1O
1T
0Y
0A
0@
1h
0<
0:
0N
0S
1X
0-
0%
b11100 $
b11100 ,
b11100 (
b0 )
b11100 &
#285000
b11101 !
b11101 B
1i
0f
1-
1%
b1 )
#290000
0g
1G
b11101 !
b11101 B
1i
0O
1f
1N
0-
0%
b11101 $
b11101 ,
b11101 (
b0 )
b11101 &
#295000
1m
b11110 !
b11110 B
0i
0j
1g
1A
0h
1f
1<
1-
1%
b1 )
#300000
0k
1m
b11110 !
b11110 B
0i
0G
1F
1j
1g
1O
0T
0A
1h
0<
0N
1S
0-
0%
b11110 $
b11110 ,
b11110 (
b0 )
b11110 &
#305000
b11111 !
b11111 B
1i
0f
1-
1%
b1 )
#310000
0g
1G
b11111 !
b11111 B
1i
0O
1f
1N
0-
0%
b11111 $
b11111 ,
b11111 (
b0 )
b11111 &
#315000
0m
0q
0u
0y
1k
1o
1s
1w
b0 !
b0 B
0i
0l
1j
0p
1n
0t
1r
0x
1v
1g
1A
1@
1?
1>
1"
1=
0h
1f
1<
1:
17
13
1.
1-
1%
b1 )
#320000
b1 !
b1 B
1i
0F
0E
0D
0C
1l
1p
1t
1x
0g
1O
1T
1Y
1^
1c
0P
0A
0@
0?
0>
0"
0=
1h
0<
0:
07
03
0.
0N
0S
0X
0]
0b
1M
0-
0%
b0 $
b0 ,
b1 #
b1 +
b1 '
b0 (
b0 )
b100000 &
#325000
1m
b10 !
b10 B
0i
0j
1g
1A
0h
1f
1<
1-
1%
b1 )
b1 &
#330000
0G
b10 !
b10 B
0i
1P
1g
0Q
1O
1h
1L
0<
1N
0-
0%
b1 $
b1 ,
b1 (
b0 )
b10 &
#335000
b11 !
b11 B
1i
0f
1-
1%
b1 )
#340000
0g
1m
1G
0k
1j
0P
1F
b11 !
b11 B
1i
0A
1Q
0T
1f
0L
0N
1S
0-
0%
b10 $
b10 ,
b10 (
b0 )
b11 &
#345000
0m
1k
1q
b100 !
b100 B
0i
0l
1j
0n
1g
1A
1@
0h
1f
1<
1:
1-
1%
b1 )
#350000
0G
1q
b100 !
b100 B
0i
1P
0n
1g
1;
0Q
1O
1@
1h
1L
0<
0:
1N
0-
0%
b11 $
b11 ,
b11 (
b0 )
b100 &
#355000
b101 !
b101 B
1i
0f
1-
1%
b1 )
#360000
0g
1n
1G
0o
1l
0@
0P
0F
1E
b101 !
b101 B
1i
0A
0;
1Q
1T
0Y
1f
0L
0N
0S
1X
0-
0%
b100 $
b100 ,
b100 (
b0 )
b101 &
#365000
1m
b110 !
b110 B
0i
0j
1g
1A
0h
1f
1<
1-
1%
b1 )
#370000
0G
b110 !
b110 B
0i
1P
1g
0Q
1O
1h
1L
0<
1N
0-
0%
b101 $
b101 ,
b101 (
b0 )
b110 &
#375000
b111 !
b111 B
1i
0f
1-
1%
b1 )
#380000
0g
1m
1G
0k
1j
0P
1F
b111 !
b111 B
1i
0A
1Q
0T
1f
0L
0N
1S
0-
0%
b110 $
b110 ,
b110 (
b0 )
b111 &
#385000
0m
0q
1k
1o
1u
b1000 !
b1000 B
0i
0l
1j
0p
1n
0r
1g
1A
1@
1?
0h
1f
1<
1:
17
1-
1%
b1 )
#390000
0q
0G
1o
1n
1u
b1000 !
b1000 B
0i
1P
0p
0r
1g
18
1;
0Q
1O
1@
1?
1h
1L
0<
0:
07
1N
0-
0%
b111 $
b111 ,
b111 (
b0 )
b1000 &
#395000
b1001 !
b1001 B
1i
0f
1-
1%
b1 )
#400000
0g
1r
1G
1p
0s
1l
0?
0@
0P
0F
0E
1D
b1001 !
b1001 B
1i
0A
08
0;
1Q
1T
1Y
0^
1f
0L
0N
0S
0X
1]
0-
0%
b1000 $
b1000 ,
b1000 (
b0 )
b1001 &
#405000
1m
b1010 !
b1010 B
0i
0j
1g
1A
0h
1f
1<
1-
1%
b1 )
#410000
0G
b1010 !
b1010 B
0i
1P
1g
0Q
1O
1h
1L
0<
1N
0-
0%
b1001 $
b1001 ,
b1001 (
b0 )
b1010 &
#415000
b1011 !
b1011 B
1i
0f
1-
1%
b1 )
#420000
0g
1m
1G
0k
1j
0P
1F
b1011 !
b1011 B
1i
0A
1Q
0T
1f
0L
0N
1S
0-
0%
b1010 $
b1010 ,
b1010 (
b0 )
b1011 &
#425000
0m
1k
1q
b1100 !
b1100 B
0i
0l
1j
0n
1g
1A
1@
0h
1f
1<
1:
1-
1%
b1 )
#430000
0G
1q
b1100 !
b1100 B
0i
1P
0n
1g
1;
0Q
1O
1@
1h
1L
0<
0:
1N
0-
0%
b1011 $
b1011 ,
b1011 (
b0 )
b1100 &
#435000
b1101 !
b1101 B
1i
0f
1-
1%
b1 )
#440000
0g
1n
1G
0o
1l
0@
0P
0F
1E
b1101 !
b1101 B
1i
0A
0;
1Q
1T
0Y
1f
0L
0N
0S
1X
0-
0%
b1100 $
b1100 ,
b1100 (
b0 )
b1101 &
#445000
1m
b1110 !
b1110 B
0i
0j
1g
1A
0h
1f
1<
1-
1%
b1 )
#450000
0G
b1110 !
b1110 B
0i
1P
1g
0Q
1O
1h
1L
0<
1N
0-
0%
b1101 $
b1101 ,
b1101 (
b0 )
b1110 &
#455000
b1111 !
b1111 B
1i
0f
1-
1%
b1 )
#460000
0g
1m
1G
0k
1j
0P
1F
b1111 !
b1111 B
1i
0A
1Q
0T
1f
0L
0N
1S
0-
0%
b1110 $
b1110 ,
b1110 (
b0 )
b1111 &
#465000
0m
0q
0u
1k
1o
1s
1y
b10000 !
b10000 B
0i
0l
1j
0p
1n
0t
1r
0v
1g
1A
1@
1?
1>
0h
1f
1<
1:
17
13
1-
1%
b1 )
#470000
0q
0u
0G
1o
1n
1s
1r
1y
b10000 !
b10000 B
0i
1P
0p
0t
0v
1g
14
18
1;
0Q
1O
1@
1?
1>
1h
1L
0<
0:
07
03
1N
0-
0%
b1111 $
b1111 ,
b1111 (
b0 )
b10000 &
#475000
b10001 !
b10001 B
1i
0f
1-
1%
b1 )
#480000
0g
1v
1G
1p
1t
0w
1l
0>
0?
0@
0P
0F
0E
0D
1C
b10001 !
b10001 B
1i
0A
04
08
0;
1Q
1T
1Y
1^
0c
1f
0L
0N
0S
0X
0]
1b
0-
0%
b10000 $
b10000 ,
b10000 (
b0 )
b10001 &
#485000
1m
b10010 !
b10010 B
0i
0j
1g
1A
0h
1f
1<
1-
1%
b1 )
#490000
0G
b10010 !
b10010 B
0i
1P
1g
0Q
1O
1h
1L
0<
1N
0-
0%
b10001 $
b10001 ,
b10001 (
b0 )
b10010 &
#495000
b10011 !
b10011 B
1i
0f
1-
1%
b1 )
#500000
0g
1m
1G
0k
1j
0P
1F
b10011 !
b10011 B
1i
0A
1Q
0T
1f
0L
0N
1S
0-
0%
b10010 $
b10010 ,
b10010 (
b0 )
b10011 &
#505000
0m
1k
1q
b10100 !
b10100 B
0i
0l
1j
0n
1g
1A
1@
0h
1f
1<
1:
1-
1%
b1 )
#510000
0G
1q
b10100 !
b10100 B
0i
1P
0n
1g
1;
0Q
1O
1@
1h
1L
0<
0:
1N
0-
0%
b10011 $
b10011 ,
b10011 (
b0 )
b10100 &
#515000
b10101 !
b10101 B
1i
0f
1-
1%
b1 )
#520000
0g
1n
1G
0o
1l
0@
0P
0F
1E
b10101 !
b10101 B
1i
0A
0;
1Q
1T
0Y
1f
0L
0N
0S
1X
0-
0%
b10100 $
b10100 ,
b10100 (
b0 )
b10101 &
#525000
1m
b10110 !
b10110 B
0i
0j
1g
1A
0h
1f
1<
1-
1%
b1 )
#530000
0G
b10110 !
b10110 B
0i
1P
1g
0Q
1O
1h
1L
0<
1N
0-
0%
b10101 $
b10101 ,
b10101 (
b0 )
b10110 &
#535000
b10111 !
b10111 B
1i
0f
1-
1%
b1 )
#540000
0g
1m
1G
0k
1j
0P
1F
b10111 !
b10111 B
1i
0A
1Q
0T
1f
0L
0N
1S
0-
0%
b10110 $
b10110 ,
b10110 (
b0 )
b10111 &
#545000
0m
0q
1k
1o
1u
b11000 !
b11000 B
0i
0l
1j
0p
1n
0r
1g
1A
1@
1?
0h
1f
1<
1:
17
1-
1%
b1 )
#550000
0q
0G
1o
1n
1u
b11000 !
b11000 B
0i
1P
0p
0r
1g
18
1;
0Q
1O
1@
1?
1h
1L
0<
0:
07
1N
0-
0%
b10111 $
b10111 ,
b10111 (
b0 )
b11000 &
#555000
b11001 !
b11001 B
1i
0f
1-
1%
b1 )
#560000
0g
1r
1G
1p
0s
1l
0?
0@
0P
0F
0E
1D
b11001 !
b11001 B
1i
0A
08
0;
1Q
1T
1Y
0^
1f
0L
0N
0S
0X
1]
0-
0%
b11000 $
b11000 ,
b11000 (
b0 )
b11001 &
#565000
1m
b11010 !
b11010 B
0i
0j
1g
1A
0h
1f
1<
1-
1%
b1 )
#570000
0G
b11010 !
b11010 B
0i
1P
1g
0Q
1O
1h
1L
0<
1N
0-
0%
b11001 $
b11001 ,
b11001 (
b0 )
b11010 &
#575000
b11011 !
b11011 B
1i
0f
1-
1%
b1 )
#580000
0g
1m
1G
0k
1j
0P
1F
b11011 !
b11011 B
1i
0A
1Q
0T
1f
0L
0N
1S
0-
0%
b11010 $
b11010 ,
b11010 (
b0 )
b11011 &
